${c3}
                   ${c3}ð${c4}ðð
		  ${c3}ððð${c4}ðð
                 ${c3}ððððð${c4}ðð
                ${c3}ððððððð${c4}ðð
               ${c3}ððððððððð${c4}ðð
              ${c3}ððððððððððð${c4}ðð
             ${c3}ððððððððððððð${c4}ðð
            ${c3}ððððððððððððððð${c4}ðð
           ${c3}ððððððððððððððððð${c4}ðð
          ${c3}ððððððððððððððððððð${c4}ðð
         ${c3}ððððððððððððððððððððð${c4}ðð
        ${c3}ððððððððððð${c4}ð   ${c3}ðððððððð${c4}ðð
       ${c3}ðððððððððð${c4}ð      ${c3}ðððððððð${c4}ðð
      ${c3}ðððððððððð${c4}ð        ${c3}ðððððððð${c4}ðð
     ${c3}ððððððððððð${c4}ð        ${c3}ððððððððð${c4}ðð
    ${c3}ððððððððððððð${c4}ð      ${c3}ððððððððððð${c4}ðð
   ${c3}ððððððð${c4}ðð               ${c3}ððððððððð${c4}ðð
  ${c3}ðððð${c4}ðð                         ${c3}ðððð${c4}ðð
 ${c3}ðð${c4}ðð                              ${c3}ðð${c4}ðð
 ${c3}ð${c4}ðð




                   ððð
		  ððððð
                 ððððððð
                ððððððððð
               ððððððððððð
              ððððððððððððð
             ððððððððððððððð
            ððððððððððððððððð
           ððððððððððððððððððð
          ððððððððððððððððððððð
         ððððððððððððððððððððððð
        ððððððððððð    ðððððððððð
       ððððððððððð      ðððððððððð
      ððððððððððð        ðððððððððð
     ðððððððððððð        ððððððððððð
    ðððððððððððððð      ððððððððððððð
   ððððððððð               ððððððððððð
  ðððððð                         ðððððð
 ðððð                              ðððð
 ððð 


